{
  "extends": ["tslint-config-standard"],
  "rules": {
    "no-unused-variable": true,
    "trailing-comma": false,
    "quotemark": [true, "single"],
    "semicolon": [true, "always"],
    "space-before-function-paren": [true, "never"],
    "member-ordering": [false],
    "handle-callback-err": [false]
  }
}
